-------------------------------------------------------------------------------
Test set: ro.tuc.ds2020.controllers.PersonControllerUnitTest
-------------------------------------------------------------------------------
Tests run: 4, Failures: 0, Errors: 0, Skipped: 0, Time elapsed: 2.023 s - in ro.tuc.ds2020.controllers.PersonControllerUnitTest
